id,name,model_id:id,group_id:id,perm_read,perm_write,perm_create,perm_unlink
access_website_crm_score,access_website_crm_score,model_website_crm_score,,1,0,0,0
access_website_crm_score_manager,access_website_crm_score_manager,model_website_crm_score,sales_team.group_sale_manager,1,1,1,1
access_team_user,access_team_user,model_team_user,,1,0,0,0
access_team_user_manager,access_team_user_manager,model_team_user,sales_team.group_sale_manager,1,1,1,1
access_website_crm_pageview,access_website_crm_pageview,model_website_crm_pageview,,1,0,0,0
access_website_crm_pageview_manager,access_website_crm_pageview_manager,model_website_crm_pageview,sales_team.group_sale_manager,1,1,1,1
