id,name,model_id:id,group_id:id,perm_read,perm_write,perm_create,perm_unlink
access_delivery_easypost_service,easypost.service,model_easypost_service,sales_team.group_sale_salesman,1,0,0,0
access_delivery_easypost_service_manager,easypost.service service_manager,model_easypost_service,sales_team.group_sale_manager,1,1,1,1
access_delivery_easypost_service_partner_manager,easypost.service partner_manager,model_easypost_service,base.group_partner_manager,1,0,0,0
access_delivery_easypost_service_stock_user,easypost.service stock_user,model_easypost_service,stock.group_stock_user,1,0,0,0
access_delivery_easypost_service_stock_manager,easypost.service stock_manager,model_easypost_service,stock.group_stock_manager,1,1,1,1
