id,name,model_id:id,group_id:id,perm_read,perm_write,perm_create,perm_unlink
access_product_tic_category_user,product.tic.category.user,model_product_tic_category,base.group_user,1,0,0,0
access_product_tic_category_group_system,product.tic.category salemanager,model_product_tic_category,base.group_system,1,1,1,1
